{
  "contractName": "Context",
  "abi": [
    {
      "inputs": [],
      "stateMutability": "nonpayable",
      "type": "constructor"
    }
  ],
  "metadata": "{\"compiler\":{\"version\":\"0.6.6+commit.6c089d02\"},\"language\":\"Solidity\",\"output\":{\"abi\":[{\"inputs\":[],\"stateMutability\":\"nonpayable\",\"type\":\"constructor\"}],\"devdoc\":{\"methods\":{}},\"userdoc\":{\"methods\":{}}},\"settings\":{\"compilationTarget\":{\"@openzeppelin/contracts/GSN/Context.sol\":\"Context\"},\"evmVersion\":\"istanbul\",\"libraries\":{},\"metadata\":{\"bytecodeHash\":\"ipfs\"},\"optimizer\":{\"enabled\":false,\"runs\":200},\"remappings\":[]},\"sources\":{\"@openzeppelin/contracts/GSN/Context.sol\":{\"keccak256\":\"0x0de74dfa6b37943c1b834cbd8fb7a8d052e5ff80c7adb33692102dd6cd2985e9\",\"urls\":[\"bzz-raw://9d2d827fcf4a838f5821732c0acd6a40d21c2a5a2cfe2563feec91465f47bb60\",\"dweb:/ipfs/Qmex3wMKf5Sghbfvr288RUg1kP2uAyTMf11w83WbMbpQQc\"]}},\"version\":1}",
  "bytecode": "0x",
  "deployedBytecode": "0x",
  "immutableReferences": {},
  "sourceMap": "",
  "deployedSourceMap": "",
  "source": "pragma solidity ^0.6.0;\n\n/*\n * @dev Provides information about the current execution context, including the\n * sender of the transaction and its data. While these are generally available\n * via msg.sender and msg.data, they should not be accessed in such a direct\n * manner, since when dealing with GSN meta-transactions the account sending and\n * paying for execution may not be the actual sender (as far as an application\n * is concerned).\n *\n * This contract is only required for intermediate, library-like contracts.\n */\ncontract Context {\n    // Empty internal constructor, to prevent people from mistakenly deploying\n    // an instance of this contract, which should be used via inheritance.\n    constructor () internal { }\n\n    function _msgSender() internal view virtual returns (address payable) {\n        return msg.sender;\n    }\n\n    function _msgData() internal view virtual returns (bytes memory) {\n        this; // silence state mutability warning without generating bytecode - see https://github.com/ethereum/solidity/issues/2691\n        return msg.data;\n    }\n}\n",
  "sourcePath": "@openzeppelin/contracts/GSN/Context.sol",
  "ast": {
    "absolutePath": "@openzeppelin/contracts/GSN/Context.sol",
    "exportedSymbols": {
      "Context": [
        1055
      ]
    },
    "id": 1056,
    "nodeType": "SourceUnit",
    "nodes": [
      {
        "id": 1030,
        "literals": [
          "solidity",
          "^",
          "0.6",
          ".0"
        ],
        "nodeType": "PragmaDirective",
        "src": "0:23:6"
      },
      {
        "abstract": false,
        "baseContracts": [],
        "contractDependencies": [],
        "contractKind": "contract",
        "documentation": null,
        "fullyImplemented": true,
        "id": 1055,
        "linearizedBaseContracts": [
          1055
        ],
        "name": "Context",
        "nodeType": "ContractDefinition",
        "nodes": [
          {
            "body": {
              "id": 1033,
              "nodeType": "Block",
              "src": "726:3:6",
              "statements": []
            },
            "documentation": null,
            "id": 1034,
            "implemented": true,
            "kind": "constructor",
            "modifiers": [],
            "name": "",
            "nodeType": "FunctionDefinition",
            "overrides": null,
            "parameters": {
              "id": 1031,
              "nodeType": "ParameterList",
              "parameters": [],
              "src": "714:2:6"
            },
            "returnParameters": {
              "id": 1032,
              "nodeType": "ParameterList",
              "parameters": [],
              "src": "726:0:6"
            },
            "scope": 1055,
            "src": "702:27:6",
            "stateMutability": "nonpayable",
            "virtual": false,
            "visibility": "internal"
          },
          {
            "body": {
              "id": 1042,
              "nodeType": "Block",
              "src": "805:34:6",
              "statements": [
                {
                  "expression": {
                    "argumentTypes": null,
                    "expression": {
                      "argumentTypes": null,
                      "id": 1039,
                      "name": "msg",
                      "nodeType": "Identifier",
                      "overloadedDeclarations": [],
                      "referencedDeclaration": -15,
                      "src": "822:3:6",
                      "typeDescriptions": {
                        "typeIdentifier": "t_magic_message",
                        "typeString": "msg"
                      }
                    },
                    "id": 1040,
                    "isConstant": false,
                    "isLValue": false,
                    "isPure": false,
                    "lValueRequested": false,
                    "memberName": "sender",
                    "nodeType": "MemberAccess",
                    "referencedDeclaration": null,
                    "src": "822:10:6",
                    "typeDescriptions": {
                      "typeIdentifier": "t_address_payable",
                      "typeString": "address payable"
                    }
                  },
                  "functionReturnParameters": 1038,
                  "id": 1041,
                  "nodeType": "Return",
                  "src": "815:17:6"
                }
              ]
            },
            "documentation": null,
            "id": 1043,
            "implemented": true,
            "kind": "function",
            "modifiers": [],
            "name": "_msgSender",
            "nodeType": "FunctionDefinition",
            "overrides": null,
            "parameters": {
              "id": 1035,
              "nodeType": "ParameterList",
              "parameters": [],
              "src": "754:2:6"
            },
            "returnParameters": {
              "id": 1038,
              "nodeType": "ParameterList",
              "parameters": [
                {
                  "constant": false,
                  "id": 1037,
                  "mutability": "mutable",
                  "name": "",
                  "nodeType": "VariableDeclaration",
                  "overrides": null,
                  "scope": 1043,
                  "src": "788:15:6",
                  "stateVariable": false,
                  "storageLocation": "default",
                  "typeDescriptions": {
                    "typeIdentifier": "t_address_payable",
                    "typeString": "address payable"
                  },
                  "typeName": {
                    "id": 1036,
                    "name": "address",
                    "nodeType": "ElementaryTypeName",
                    "src": "788:15:6",
                    "stateMutability": "payable",
                    "typeDescriptions": {
                      "typeIdentifier": "t_address_payable",
                      "typeString": "address payable"
                    }
                  },
                  "value": null,
                  "visibility": "internal"
                }
              ],
              "src": "787:17:6"
            },
            "scope": 1055,
            "src": "735:104:6",
            "stateMutability": "view",
            "virtual": true,
            "visibility": "internal"
          },
          {
            "body": {
              "id": 1053,
              "nodeType": "Block",
              "src": "910:165:6",
              "statements": [
                {
                  "expression": {
                    "argumentTypes": null,
                    "id": 1048,
                    "name": "this",
                    "nodeType": "Identifier",
                    "overloadedDeclarations": [],
                    "referencedDeclaration": -28,
                    "src": "920:4:6",
                    "typeDescriptions": {
                      "typeIdentifier": "t_contract$_Context_$1055",
                      "typeString": "contract Context"
                    }
                  },
                  "id": 1049,
                  "nodeType": "ExpressionStatement",
                  "src": "920:4:6"
                },
                {
                  "expression": {
                    "argumentTypes": null,
                    "expression": {
                      "argumentTypes": null,
                      "id": 1050,
                      "name": "msg",
                      "nodeType": "Identifier",
                      "overloadedDeclarations": [],
                      "referencedDeclaration": -15,
                      "src": "1060:3:6",
                      "typeDescriptions": {
                        "typeIdentifier": "t_magic_message",
                        "typeString": "msg"
                      }
                    },
                    "id": 1051,
                    "isConstant": false,
                    "isLValue": false,
                    "isPure": false,
                    "lValueRequested": false,
                    "memberName": "data",
                    "nodeType": "MemberAccess",
                    "referencedDeclaration": null,
                    "src": "1060:8:6",
                    "typeDescriptions": {
                      "typeIdentifier": "t_bytes_calldata_ptr",
                      "typeString": "bytes calldata"
                    }
                  },
                  "functionReturnParameters": 1047,
                  "id": 1052,
                  "nodeType": "Return",
                  "src": "1053:15:6"
                }
              ]
            },
            "documentation": null,
            "id": 1054,
            "implemented": true,
            "kind": "function",
            "modifiers": [],
            "name": "_msgData",
            "nodeType": "FunctionDefinition",
            "overrides": null,
            "parameters": {
              "id": 1044,
              "nodeType": "ParameterList",
              "parameters": [],
              "src": "862:2:6"
            },
            "returnParameters": {
              "id": 1047,
              "nodeType": "ParameterList",
              "parameters": [
                {
                  "constant": false,
                  "id": 1046,
                  "mutability": "mutable",
                  "name": "",
                  "nodeType": "VariableDeclaration",
                  "overrides": null,
                  "scope": 1054,
                  "src": "896:12:6",
                  "stateVariable": false,
                  "storageLocation": "memory",
                  "typeDescriptions": {
                    "typeIdentifier": "t_bytes_memory_ptr",
                    "typeString": "bytes"
                  },
                  "typeName": {
                    "id": 1045,
                    "name": "bytes",
                    "nodeType": "ElementaryTypeName",
                    "src": "896:5:6",
                    "typeDescriptions": {
                      "typeIdentifier": "t_bytes_storage_ptr",
                      "typeString": "bytes"
                    }
                  },
                  "value": null,
                  "visibility": "internal"
                }
              ],
              "src": "895:14:6"
            },
            "scope": 1055,
            "src": "845:230:6",
            "stateMutability": "view",
            "virtual": true,
            "visibility": "internal"
          }
        ],
        "scope": 1056,
        "src": "525:552:6"
      }
    ],
    "src": "0:1078:6"
  },
  "legacyAST": {
    "absolutePath": "@openzeppelin/contracts/GSN/Context.sol",
    "exportedSymbols": {
      "Context": [
        1055
      ]
    },
    "id": 1056,
    "nodeType": "SourceUnit",
    "nodes": [
      {
        "id": 1030,
        "literals": [
          "solidity",
          "^",
          "0.6",
          ".0"
        ],
        "nodeType": "PragmaDirective",
        "src": "0:23:6"
      },
      {
        "abstract": false,
        "baseContracts": [],
        "contractDependencies": [],
        "contractKind": "contract",
        "documentation": null,
        "fullyImplemented": true,
        "id": 1055,
        "linearizedBaseContracts": [
          1055
        ],
        "name": "Context",
        "nodeType": "ContractDefinition",
        "nodes": [
          {
            "body": {
              "id": 1033,
              "nodeType": "Block",
              "src": "726:3:6",
              "statements": []
            },
            "documentation": null,
            "id": 1034,
            "implemented": true,
            "kind": "constructor",
            "modifiers": [],
            "name": "",
            "nodeType": "FunctionDefinition",
            "overrides": null,
            "parameters": {
              "id": 1031,
              "nodeType": "ParameterList",
              "parameters": [],
              "src": "714:2:6"
            },
            "returnParameters": {
              "id": 1032,
              "nodeType": "ParameterList",
              "parameters": [],
              "src": "726:0:6"
            },
            "scope": 1055,
            "src": "702:27:6",
            "stateMutability": "nonpayable",
            "virtual": false,
            "visibility": "internal"
          },
          {
            "body": {
              "id": 1042,
              "nodeType": "Block",
              "src": "805:34:6",
              "statements": [
                {
                  "expression": {
                    "argumentTypes": null,
                    "expression": {
                      "argumentTypes": null,
                      "id": 1039,
                      "name": "msg",
                      "nodeType": "Identifier",
                      "overloadedDeclarations": [],
                      "referencedDeclaration": -15,
                      "src": "822:3:6",
                      "typeDescriptions": {
                        "typeIdentifier": "t_magic_message",
                        "typeString": "msg"
                      }
                    },
                    "id": 1040,
                    "isConstant": false,
                    "isLValue": false,
                    "isPure": false,
                    "lValueRequested": false,
                    "memberName": "sender",
                    "nodeType": "MemberAccess",
                    "referencedDeclaration": null,
                    "src": "822:10:6",
                    "typeDescriptions": {
                      "typeIdentifier": "t_address_payable",
                      "typeString": "address payable"
                    }
                  },
                  "functionReturnParameters": 1038,
                  "id": 1041,
                  "nodeType": "Return",
                  "src": "815:17:6"
                }
              ]
            },
            "documentation": null,
            "id": 1043,
            "implemented": true,
            "kind": "function",
            "modifiers": [],
            "name": "_msgSender",
            "nodeType": "FunctionDefinition",
            "overrides": null,
            "parameters": {
              "id": 1035,
              "nodeType": "ParameterList",
              "parameters": [],
              "src": "754:2:6"
            },
            "returnParameters": {
              "id": 1038,
              "nodeType": "ParameterList",
              "parameters": [
                {
                  "constant": false,
                  "id": 1037,
                  "mutability": "mutable",
                  "name": "",
                  "nodeType": "VariableDeclaration",
                  "overrides": null,
                  "scope": 1043,
                  "src": "788:15:6",
                  "stateVariable": false,
                  "storageLocation": "default",
                  "typeDescriptions": {
                    "typeIdentifier": "t_address_payable",
                    "typeString": "address payable"
                  },
                  "typeName": {
                    "id": 1036,
                    "name": "address",
                    "nodeType": "ElementaryTypeName",
                    "src": "788:15:6",
                    "stateMutability": "payable",
                    "typeDescriptions": {
                      "typeIdentifier": "t_address_payable",
                      "typeString": "address payable"
                    }
                  },
                  "value": null,
                  "visibility": "internal"
                }
              ],
              "src": "787:17:6"
            },
            "scope": 1055,
            "src": "735:104:6",
            "stateMutability": "view",
            "virtual": true,
            "visibility": "internal"
          },
          {
            "body": {
              "id": 1053,
              "nodeType": "Block",
              "src": "910:165:6",
              "statements": [
                {
                  "expression": {
                    "argumentTypes": null,
                    "id": 1048,
                    "name": "this",
                    "nodeType": "Identifier",
                    "overloadedDeclarations": [],
                    "referencedDeclaration": -28,
                    "src": "920:4:6",
                    "typeDescriptions": {
                      "typeIdentifier": "t_contract$_Context_$1055",
                      "typeString": "contract Context"
                    }
                  },
                  "id": 1049,
                  "nodeType": "ExpressionStatement",
                  "src": "920:4:6"
                },
                {
                  "expression": {
                    "argumentTypes": null,
                    "expression": {
                      "argumentTypes": null,
                      "id": 1050,
                      "name": "msg",
                      "nodeType": "Identifier",
                      "overloadedDeclarations": [],
                      "referencedDeclaration": -15,
                      "src": "1060:3:6",
                      "typeDescriptions": {
                        "typeIdentifier": "t_magic_message",
                        "typeString": "msg"
                      }
                    },
                    "id": 1051,
                    "isConstant": false,
                    "isLValue": false,
                    "isPure": false,
                    "lValueRequested": false,
                    "memberName": "data",
                    "nodeType": "MemberAccess",
                    "referencedDeclaration": null,
                    "src": "1060:8:6",
                    "typeDescriptions": {
                      "typeIdentifier": "t_bytes_calldata_ptr",
                      "typeString": "bytes calldata"
                    }
                  },
                  "functionReturnParameters": 1047,
                  "id": 1052,
                  "nodeType": "Return",
                  "src": "1053:15:6"
                }
              ]
            },
            "documentation": null,
            "id": 1054,
            "implemented": true,
            "kind": "function",
            "modifiers": [],
            "name": "_msgData",
            "nodeType": "FunctionDefinition",
            "overrides": null,
            "parameters": {
              "id": 1044,
              "nodeType": "ParameterList",
              "parameters": [],
              "src": "862:2:6"
            },
            "returnParameters": {
              "id": 1047,
              "nodeType": "ParameterList",
              "parameters": [
                {
                  "constant": false,
                  "id": 1046,
                  "mutability": "mutable",
                  "name": "",
                  "nodeType": "VariableDeclaration",
                  "overrides": null,
                  "scope": 1054,
                  "src": "896:12:6",
                  "stateVariable": false,
                  "storageLocation": "memory",
                  "typeDescriptions": {
                    "typeIdentifier": "t_bytes_memory_ptr",
                    "typeString": "bytes"
                  },
                  "typeName": {
                    "id": 1045,
                    "name": "bytes",
                    "nodeType": "ElementaryTypeName",
                    "src": "896:5:6",
                    "typeDescriptions": {
                      "typeIdentifier": "t_bytes_storage_ptr",
                      "typeString": "bytes"
                    }
                  },
                  "value": null,
                  "visibility": "internal"
                }
              ],
              "src": "895:14:6"
            },
            "scope": 1055,
            "src": "845:230:6",
            "stateMutability": "view",
            "virtual": true,
            "visibility": "internal"
          }
        ],
        "scope": 1056,
        "src": "525:552:6"
      }
    ],
    "src": "0:1078:6"
  },
  "compiler": {
    "name": "solc",
    "version": "0.6.6+commit.6c089d02.Emscripten.clang"
  },
  "networks": {},
  "schemaVersion": "3.2.2",
  "updatedAt": "2020-07-26T05:12:47.031Z",
  "devdoc": {
    "methods": {}
  },
  "userdoc": {
    "methods": {}
  }
}