{
  "contractName": "Context",
  "abi": [],
  "metadata": "{\"compiler\":{\"version\":\"0.6.9+commit.3e3065ac\"},\"language\":\"Solidity\",\"output\":{\"abi\":[],\"devdoc\":{\"methods\":{}},\"userdoc\":{\"methods\":{}}},\"settings\":{\"compilationTarget\":{\"@openzeppelin/contracts/GSN/Context.sol\":\"Context\"},\"evmVersion\":\"istanbul\",\"libraries\":{},\"metadata\":{\"bytecodeHash\":\"ipfs\"},\"optimizer\":{\"enabled\":false,\"runs\":200},\"remappings\":[]},\"sources\":{\"@openzeppelin/contracts/GSN/Context.sol\":{\"keccak256\":\"0xc6fb4c940628ca2cde81ed6d20fc9ff456b60f55aafef555f43a86a2dda7ad9f\",\"license\":\"MIT\",\"urls\":[\"bzz-raw://f17dda58954a84ffca3d53c0b6435bad7f5c42ab3a9c4603db2f1aef00edae4e\",\"dweb:/ipfs/QmehW99QmmzKvnqTsprsApDF7mK2JVo6nnrZ47znhLTFjh\"]}},\"version\":1}",
  "bytecode": "0x",
  "deployedBytecode": "0x",
  "immutableReferences": {},
  "sourceMap": "",
  "deployedSourceMap": "",
  "source": "// SPDX-License-Identifier: MIT\n\npragma solidity ^0.6.0;\n\n/*\n * @dev Provides information about the current execution context, including the\n * sender of the transaction and its data. While these are generally available\n * via msg.sender and msg.data, they should not be accessed in such a direct\n * manner, since when dealing with GSN meta-transactions the account sending and\n * paying for execution may not be the actual sender (as far as an application\n * is concerned).\n *\n * This contract is only required for intermediate, library-like contracts.\n */\ncontract Context {\n    // Empty internal constructor, to prevent people from mistakenly deploying\n    // an instance of this contract, which should be used via inheritance.\n    constructor () internal { }\n\n    function _msgSender() internal view virtual returns (address payable) {\n        return msg.sender;\n    }\n\n    function _msgData() internal view virtual returns (bytes memory) {\n        this; // silence state mutability warning without generating bytecode - see https://github.com/ethereum/solidity/issues/2691\n        return msg.data;\n    }\n}\n",
  "sourcePath": "@openzeppelin/contracts/GSN/Context.sol",
  "ast": {
    "absolutePath": "@openzeppelin/contracts/GSN/Context.sol",
    "exportedSymbols": {
      "Context": [
        7988
      ]
    },
    "id": 7989,
    "license": "MIT",
    "nodeType": "SourceUnit",
    "nodes": [
      {
        "id": 7963,
        "literals": [
          "solidity",
          "^",
          "0.6",
          ".0"
        ],
        "nodeType": "PragmaDirective",
        "src": "33:23:23"
      },
      {
        "abstract": false,
        "baseContracts": [],
        "contractDependencies": [],
        "contractKind": "contract",
        "documentation": null,
        "fullyImplemented": true,
        "id": 7988,
        "linearizedBaseContracts": [
          7988
        ],
        "name": "Context",
        "nodeType": "ContractDefinition",
        "nodes": [
          {
            "body": {
              "id": 7966,
              "nodeType": "Block",
              "src": "759:3:23",
              "statements": []
            },
            "documentation": null,
            "id": 7967,
            "implemented": true,
            "kind": "constructor",
            "modifiers": [],
            "name": "",
            "nodeType": "FunctionDefinition",
            "overrides": null,
            "parameters": {
              "id": 7964,
              "nodeType": "ParameterList",
              "parameters": [],
              "src": "747:2:23"
            },
            "returnParameters": {
              "id": 7965,
              "nodeType": "ParameterList",
              "parameters": [],
              "src": "759:0:23"
            },
            "scope": 7988,
            "src": "735:27:23",
            "stateMutability": "nonpayable",
            "virtual": false,
            "visibility": "internal"
          },
          {
            "body": {
              "id": 7975,
              "nodeType": "Block",
              "src": "838:34:23",
              "statements": [
                {
                  "expression": {
                    "argumentTypes": null,
                    "expression": {
                      "argumentTypes": null,
                      "id": 7972,
                      "name": "msg",
                      "nodeType": "Identifier",
                      "overloadedDeclarations": [],
                      "referencedDeclaration": -15,
                      "src": "855:3:23",
                      "typeDescriptions": {
                        "typeIdentifier": "t_magic_message",
                        "typeString": "msg"
                      }
                    },
                    "id": 7973,
                    "isConstant": false,
                    "isLValue": false,
                    "isPure": false,
                    "lValueRequested": false,
                    "memberName": "sender",
                    "nodeType": "MemberAccess",
                    "referencedDeclaration": null,
                    "src": "855:10:23",
                    "typeDescriptions": {
                      "typeIdentifier": "t_address_payable",
                      "typeString": "address payable"
                    }
                  },
                  "functionReturnParameters": 7971,
                  "id": 7974,
                  "nodeType": "Return",
                  "src": "848:17:23"
                }
              ]
            },
            "documentation": null,
            "id": 7976,
            "implemented": true,
            "kind": "function",
            "modifiers": [],
            "name": "_msgSender",
            "nodeType": "FunctionDefinition",
            "overrides": null,
            "parameters": {
              "id": 7968,
              "nodeType": "ParameterList",
              "parameters": [],
              "src": "787:2:23"
            },
            "returnParameters": {
              "id": 7971,
              "nodeType": "ParameterList",
              "parameters": [
                {
                  "constant": false,
                  "id": 7970,
                  "mutability": "mutable",
                  "name": "",
                  "nodeType": "VariableDeclaration",
                  "overrides": null,
                  "scope": 7976,
                  "src": "821:15:23",
                  "stateVariable": false,
                  "storageLocation": "default",
                  "typeDescriptions": {
                    "typeIdentifier": "t_address_payable",
                    "typeString": "address payable"
                  },
                  "typeName": {
                    "id": 7969,
                    "name": "address",
                    "nodeType": "ElementaryTypeName",
                    "src": "821:15:23",
                    "stateMutability": "payable",
                    "typeDescriptions": {
                      "typeIdentifier": "t_address_payable",
                      "typeString": "address payable"
                    }
                  },
                  "value": null,
                  "visibility": "internal"
                }
              ],
              "src": "820:17:23"
            },
            "scope": 7988,
            "src": "768:104:23",
            "stateMutability": "view",
            "virtual": true,
            "visibility": "internal"
          },
          {
            "body": {
              "id": 7986,
              "nodeType": "Block",
              "src": "943:165:23",
              "statements": [
                {
                  "expression": {
                    "argumentTypes": null,
                    "id": 7981,
                    "name": "this",
                    "nodeType": "Identifier",
                    "overloadedDeclarations": [],
                    "referencedDeclaration": -28,
                    "src": "953:4:23",
                    "typeDescriptions": {
                      "typeIdentifier": "t_contract$_Context_$7988",
                      "typeString": "contract Context"
                    }
                  },
                  "id": 7982,
                  "nodeType": "ExpressionStatement",
                  "src": "953:4:23"
                },
                {
                  "expression": {
                    "argumentTypes": null,
                    "expression": {
                      "argumentTypes": null,
                      "id": 7983,
                      "name": "msg",
                      "nodeType": "Identifier",
                      "overloadedDeclarations": [],
                      "referencedDeclaration": -15,
                      "src": "1093:3:23",
                      "typeDescriptions": {
                        "typeIdentifier": "t_magic_message",
                        "typeString": "msg"
                      }
                    },
                    "id": 7984,
                    "isConstant": false,
                    "isLValue": false,
                    "isPure": false,
                    "lValueRequested": false,
                    "memberName": "data",
                    "nodeType": "MemberAccess",
                    "referencedDeclaration": null,
                    "src": "1093:8:23",
                    "typeDescriptions": {
                      "typeIdentifier": "t_bytes_calldata_ptr",
                      "typeString": "bytes calldata"
                    }
                  },
                  "functionReturnParameters": 7980,
                  "id": 7985,
                  "nodeType": "Return",
                  "src": "1086:15:23"
                }
              ]
            },
            "documentation": null,
            "id": 7987,
            "implemented": true,
            "kind": "function",
            "modifiers": [],
            "name": "_msgData",
            "nodeType": "FunctionDefinition",
            "overrides": null,
            "parameters": {
              "id": 7977,
              "nodeType": "ParameterList",
              "parameters": [],
              "src": "895:2:23"
            },
            "returnParameters": {
              "id": 7980,
              "nodeType": "ParameterList",
              "parameters": [
                {
                  "constant": false,
                  "id": 7979,
                  "mutability": "mutable",
                  "name": "",
                  "nodeType": "VariableDeclaration",
                  "overrides": null,
                  "scope": 7987,
                  "src": "929:12:23",
                  "stateVariable": false,
                  "storageLocation": "memory",
                  "typeDescriptions": {
                    "typeIdentifier": "t_bytes_memory_ptr",
                    "typeString": "bytes"
                  },
                  "typeName": {
                    "id": 7978,
                    "name": "bytes",
                    "nodeType": "ElementaryTypeName",
                    "src": "929:5:23",
                    "typeDescriptions": {
                      "typeIdentifier": "t_bytes_storage_ptr",
                      "typeString": "bytes"
                    }
                  },
                  "value": null,
                  "visibility": "internal"
                }
              ],
              "src": "928:14:23"
            },
            "scope": 7988,
            "src": "878:230:23",
            "stateMutability": "view",
            "virtual": true,
            "visibility": "internal"
          }
        ],
        "scope": 7989,
        "src": "558:552:23"
      }
    ],
    "src": "33:1078:23"
  },
  "legacyAST": {
    "absolutePath": "@openzeppelin/contracts/GSN/Context.sol",
    "exportedSymbols": {
      "Context": [
        7988
      ]
    },
    "id": 7989,
    "license": "MIT",
    "nodeType": "SourceUnit",
    "nodes": [
      {
        "id": 7963,
        "literals": [
          "solidity",
          "^",
          "0.6",
          ".0"
        ],
        "nodeType": "PragmaDirective",
        "src": "33:23:23"
      },
      {
        "abstract": false,
        "baseContracts": [],
        "contractDependencies": [],
        "contractKind": "contract",
        "documentation": null,
        "fullyImplemented": true,
        "id": 7988,
        "linearizedBaseContracts": [
          7988
        ],
        "name": "Context",
        "nodeType": "ContractDefinition",
        "nodes": [
          {
            "body": {
              "id": 7966,
              "nodeType": "Block",
              "src": "759:3:23",
              "statements": []
            },
            "documentation": null,
            "id": 7967,
            "implemented": true,
            "kind": "constructor",
            "modifiers": [],
            "name": "",
            "nodeType": "FunctionDefinition",
            "overrides": null,
            "parameters": {
              "id": 7964,
              "nodeType": "ParameterList",
              "parameters": [],
              "src": "747:2:23"
            },
            "returnParameters": {
              "id": 7965,
              "nodeType": "ParameterList",
              "parameters": [],
              "src": "759:0:23"
            },
            "scope": 7988,
            "src": "735:27:23",
            "stateMutability": "nonpayable",
            "virtual": false,
            "visibility": "internal"
          },
          {
            "body": {
              "id": 7975,
              "nodeType": "Block",
              "src": "838:34:23",
              "statements": [
                {
                  "expression": {
                    "argumentTypes": null,
                    "expression": {
                      "argumentTypes": null,
                      "id": 7972,
                      "name": "msg",
                      "nodeType": "Identifier",
                      "overloadedDeclarations": [],
                      "referencedDeclaration": -15,
                      "src": "855:3:23",
                      "typeDescriptions": {
                        "typeIdentifier": "t_magic_message",
                        "typeString": "msg"
                      }
                    },
                    "id": 7973,
                    "isConstant": false,
                    "isLValue": false,
                    "isPure": false,
                    "lValueRequested": false,
                    "memberName": "sender",
                    "nodeType": "MemberAccess",
                    "referencedDeclaration": null,
                    "src": "855:10:23",
                    "typeDescriptions": {
                      "typeIdentifier": "t_address_payable",
                      "typeString": "address payable"
                    }
                  },
                  "functionReturnParameters": 7971,
                  "id": 7974,
                  "nodeType": "Return",
                  "src": "848:17:23"
                }
              ]
            },
            "documentation": null,
            "id": 7976,
            "implemented": true,
            "kind": "function",
            "modifiers": [],
            "name": "_msgSender",
            "nodeType": "FunctionDefinition",
            "overrides": null,
            "parameters": {
              "id": 7968,
              "nodeType": "ParameterList",
              "parameters": [],
              "src": "787:2:23"
            },
            "returnParameters": {
              "id": 7971,
              "nodeType": "ParameterList",
              "parameters": [
                {
                  "constant": false,
                  "id": 7970,
                  "mutability": "mutable",
                  "name": "",
                  "nodeType": "VariableDeclaration",
                  "overrides": null,
                  "scope": 7976,
                  "src": "821:15:23",
                  "stateVariable": false,
                  "storageLocation": "default",
                  "typeDescriptions": {
                    "typeIdentifier": "t_address_payable",
                    "typeString": "address payable"
                  },
                  "typeName": {
                    "id": 7969,
                    "name": "address",
                    "nodeType": "ElementaryTypeName",
                    "src": "821:15:23",
                    "stateMutability": "payable",
                    "typeDescriptions": {
                      "typeIdentifier": "t_address_payable",
                      "typeString": "address payable"
                    }
                  },
                  "value": null,
                  "visibility": "internal"
                }
              ],
              "src": "820:17:23"
            },
            "scope": 7988,
            "src": "768:104:23",
            "stateMutability": "view",
            "virtual": true,
            "visibility": "internal"
          },
          {
            "body": {
              "id": 7986,
              "nodeType": "Block",
              "src": "943:165:23",
              "statements": [
                {
                  "expression": {
                    "argumentTypes": null,
                    "id": 7981,
                    "name": "this",
                    "nodeType": "Identifier",
                    "overloadedDeclarations": [],
                    "referencedDeclaration": -28,
                    "src": "953:4:23",
                    "typeDescriptions": {
                      "typeIdentifier": "t_contract$_Context_$7988",
                      "typeString": "contract Context"
                    }
                  },
                  "id": 7982,
                  "nodeType": "ExpressionStatement",
                  "src": "953:4:23"
                },
                {
                  "expression": {
                    "argumentTypes": null,
                    "expression": {
                      "argumentTypes": null,
                      "id": 7983,
                      "name": "msg",
                      "nodeType": "Identifier",
                      "overloadedDeclarations": [],
                      "referencedDeclaration": -15,
                      "src": "1093:3:23",
                      "typeDescriptions": {
                        "typeIdentifier": "t_magic_message",
                        "typeString": "msg"
                      }
                    },
                    "id": 7984,
                    "isConstant": false,
                    "isLValue": false,
                    "isPure": false,
                    "lValueRequested": false,
                    "memberName": "data",
                    "nodeType": "MemberAccess",
                    "referencedDeclaration": null,
                    "src": "1093:8:23",
                    "typeDescriptions": {
                      "typeIdentifier": "t_bytes_calldata_ptr",
                      "typeString": "bytes calldata"
                    }
                  },
                  "functionReturnParameters": 7980,
                  "id": 7985,
                  "nodeType": "Return",
                  "src": "1086:15:23"
                }
              ]
            },
            "documentation": null,
            "id": 7987,
            "implemented": true,
            "kind": "function",
            "modifiers": [],
            "name": "_msgData",
            "nodeType": "FunctionDefinition",
            "overrides": null,
            "parameters": {
              "id": 7977,
              "nodeType": "ParameterList",
              "parameters": [],
              "src": "895:2:23"
            },
            "returnParameters": {
              "id": 7980,
              "nodeType": "ParameterList",
              "parameters": [
                {
                  "constant": false,
                  "id": 7979,
                  "mutability": "mutable",
                  "name": "",
                  "nodeType": "VariableDeclaration",
                  "overrides": null,
                  "scope": 7987,
                  "src": "929:12:23",
                  "stateVariable": false,
                  "storageLocation": "memory",
                  "typeDescriptions": {
                    "typeIdentifier": "t_bytes_memory_ptr",
                    "typeString": "bytes"
                  },
                  "typeName": {
                    "id": 7978,
                    "name": "bytes",
                    "nodeType": "ElementaryTypeName",
                    "src": "929:5:23",
                    "typeDescriptions": {
                      "typeIdentifier": "t_bytes_storage_ptr",
                      "typeString": "bytes"
                    }
                  },
                  "value": null,
                  "visibility": "internal"
                }
              ],
              "src": "928:14:23"
            },
            "scope": 7988,
            "src": "878:230:23",
            "stateMutability": "view",
            "virtual": true,
            "visibility": "internal"
          }
        ],
        "scope": 7989,
        "src": "558:552:23"
      }
    ],
    "src": "33:1078:23"
  },
  "compiler": {
    "name": "solc",
    "version": "0.6.9+commit.3e3065ac.Emscripten.clang"
  },
  "networks": {},
  "schemaVersion": "3.2.2",
  "updatedAt": "2020-07-17T08:03:09.160Z",
  "devdoc": {
    "methods": {}
  },
  "userdoc": {
    "methods": {}
  }
}